^C:\USERS\ZBRAN\SOURCE\REPOS\ZLB.MADLIBS\ZLB.MADLIBS.UI\MAIN.CPP
C:\USERS\ZBRAN\SOURCE\REPOS\ZLB.MADLIBS\ZLB.MADLIBS.UI\DEBUG\VC142.PDB
C:\USERS\ZBRAN\SOURCE\REPOS\ZLB.MADLIBS\ZLB.MADLIBS.UI\DEBUG\VC142.IDB
C:\USERS\ZBRAN\SOURCE\REPOS\ZLB.MADLIBS\ZLB.MADLIBS.UI\DEBUG\MAIN.OBJ
